hw5/wave_tb_top.vcd
$date
	Thu May 28 19:42:31 2026
$end
$version
	Icarus Verilog
$end
$timescale
	1ps
$end
$scope module tb_top $end
$var reg 1 ! clk $end
$scope module dut $end
$var wire 1 ! clk $end
$var wire 1 " start $end
$var wire 1 # shift $end
$var wire 64 $ result [63:0] $end
$var wire 1 % reset $end
$var wire 1 & lsb $end
$var wire 1 ' load $end
$var wire 1 ( done $end
$var wire 32 ) b [31:0] $end
$var wire 1 * add $end
$var wire 32 + a [31:0] $end
$scope module control $end
$var wire 1 ! clk $end
$var wire 1 " start $end
$var wire 1 % reset $end
$var wire 1 & lsb $end
$var parameter 2 , ADD $end
$var parameter 2 - CHECK $end
$var parameter 2 . IDLE $end
$var parameter 2 / SHIFT $end
$var reg 1 * add $end
$var reg 6 0 count [5:0] $end
$var reg 1 ( done $end
$var reg 1 ' load $end
$var reg 1 # shift $end
$var reg 2 1 state [1:0] $end
$upscope $end
$scope module datapath $end
$var wire 1 * add $end
$var wire 1 ! clk $end
$var wire 1 ' load $end
$var wire 64 2 product [63:0] $end
$var wire 1 # shift $end
$var wire 1 % reset $end
$var wire 32 3 multiplier [31:0] $end
$var wire 32 4 multiplicand [31:0] $end
$var wire 1 & lsb $end
$var reg 64 5 multiplicand_shifted [63:0] $end
$var reg 32 6 multiplier_reg [31:0] $end
$var reg 64 7 product_reg [63:0] $end
$upscope $end
$upscope $end
$scope module intf $end
$var wire 1 ! clk $end
$var wire 1 ( done $end
$var wire 64 8 result [63:0] $end
$var reg 32 9 a [31:0] $end
$var reg 32 : b [31:0] $end
$var reg 1 % reset $end
$var reg 1 " start $end
$scope function calc_expected $end
$upscope $end
$scope task drive_inputs $end
$upscope $end
$scope task drive_reset $end
$upscope $end
$scope task pulse_start $end
$upscope $end
$upscope $end
$scope module sb $end
$var reg 32 ; a_reg [31:0] $end
$var reg 32 < b_reg [31:0] $end
$var reg 64 = expected [63:0] $end
$upscope $end
$scope module t0 $end
$var parameter 32 > NUM_TESTS $end
$var reg 32 ? A [31:0] $end
$var reg 32 @ B [31:0] $end
$var integer 32 A i [31:0] $end
$upscope $end
$upscope $end
$enddefinitions $end
$comment Show the parameter values. $end
$dumpall
b1000000 >
b11 /
b0 .
b1 -
b10 ,
$end
#0
$dumpvars
bx A
bx @
bx ?
bx =
bx <
bx ;
bx :
bx 9
b0 8
b0 7
b0 6
b0 5
bx 4
bx 3
b0 2
b0 1
b0 0
bx +
0*
bx )
0(
0'
0&
1%
b0 $
0#
x"
0!
$end
#5000
1!
#10000
0!
#15000
0%
1!
#20000
0!
#25000
1!
#30000
0!
#35000
b1 1
1'
1"
b1000000100010010101111010000001 )
b1000000100010010101111010000001 3
b1000000100010010101111010000001 :
b10010010000101010011010100100100 +
b10010010000101010011010100100100 4
b10010010000101010011010100100100 9
b1000000100010010101111010000001 @
b10010010000101010011010100100100 ?
b0 A
1!
#40000
0!
#45000
1&
b11 1
0'
b1000000100010010101111010000001 6
b10010010000101010011010100100100 5
b10010011010011101100001000111111010110011101101111111100100100 =
b1000000100010010101111010000001 <
b10010010000101010011010100100100 ;
1!
#50000
0!
#55000
b1 1
b1 0
1#
0"
1!
#60000
0!
#65000
0&
b10 1
0#
b100000010001001010111101000000 6
b100100100001010100110101001001000 5
1!
#70000
0!
#75000
b11 1
1*
1!
#80000
0!
#85000
b1 1
b10 0
1#
0*
b100100100001010100110101001001000 $
b100100100001010100110101001001000 2
b100100100001010100110101001001000 8
b100100100001010100110101001001000 7
1!
#90000
0!
#95000
b10000001000100101011110100000 6
b1001001000010101001101010010010000 5
b11 1
0#
1!
#100000
0!
#105000
b1 1
b11 0
1#
1!
#110000
0!
#115000
b1000000100010010101111010000 6
b10010010000101010011010100100100000 5
b11 1
0#
1!
#120000
0!
#125000
b1 1
b100 0
1#
1!
#130000
0!
#135000
b100000010001001010111101000 6
b100100100001010100110101001001000000 5
b11 1
0#
1!
#140000
0!
#145000
b1 1
b101 0
1#
1!
#150000
0!
#155000
b10000001000100101011110100 6
b1001001000010101001101010010010000000 5
b11 1
0#
1!
#160000
0!
#165000
b1 1
b110 0
1#
1!
#170000
0!
#175000
b1000000100010010101111010 6
b10010010000101010011010100100100000000 5
b11 1
0#
1!
#180000
0!
#185000
b1 1
b111 0
1#
1!
#190000
0!
#195000
1&
b100000010001001010111101 6
b100100100001010100110101001001000000000 5
b11 1
0#
1!
#200000
0!
#205000
b1 1
b1000 0
1#
1!
#210000
0!
#215000
0&
b10000001000100101011110 6
b1001001000010101001101010010010000000000 5
b10 1
0#
1!
#220000
0!
#225000
b11 1
1*
1!
#230000
0!
#235000
b1001001100111001010111111000111001001000 $
b1001001100111001010111111000111001001000 2
b1001001100111001010111111000111001001000 8
b1001001100111001010111111000111001001000 7
b1 1
b1001 0
1#
0*
1!
#240000
0!
#245000
1&
b11 1
0#
b1000000100010010101111 6
b10010010000101010011010100100100000000000 5
1!
#250000
0!
#255000
b1 1
b1010 0
1#
1!
#260000
0!
#265000
b10 1
0#
b100000010001001010111 6
b100100100001010100110101001001000000000000 5
1!
#270000
0!
#275000
b11 1
1*
1!
#280000
0!
#285000
b1 1
b1011 0
1#
0*
b101101101110001110001101000001111001001000 $
b101101101110001110001101000001111001001000 2
b101101101110001110001101000001111001001000 8
b101101101110001110001101000001111001001000 7
1!
#290000
0!
#295000
b10000001000100101011 6
b1001001000010101001101010010010000000000000 5
b10 1
0#
1!
#300000
0!
#305000
b11 1
1*
1!
#310000
0!
#315000
b1110110110000110111110111010011111001001000 $
b1110110110000110111110111010011111001001000 2
b1110110110000110111110111010011111001001000 8
b1110110110000110111110111010011111001001000 7
b1 1
b1100 0
1#
0*
1!
#320000
0!
#325000
b10 1
0#
b1000000100010010101 6
b10010010000101010011010100100100000000000000 5
1!
#330000
0!
#335000
b11 1
1*
1!
#340000
0!
#345000
b1 1
b1101 0
1#
0*
b100001000110110001011001011110111111001001000 $
b100001000110110001011001011110111111001001000 2
b100001000110110001011001011110111111001001000 8
b100001000110110001011001011110111111001001000 7
1!
#350000
0!
#355000
0&
b100000010001001010 6
b100100100001010100110101001001000000000000000 5
b10 1
0#
1!
#360000
0!
#365000
b11 1
1*
1!
#370000
0!
#375000
b1000101101000000110001110100111111111001001000 $
b1000101101000000110001110100111111111001001000 2
b1000101101000000110001110100111111111001001000 8
b1000101101000000110001110100111111111001001000 7
b1 1
b1110 0
1#
0*
1!
#380000
0!
#385000
1&
b11 1
0#
b10000001000100101 6
b1001001000010101001101010010010000000000000000 5
1!
#390000
0!
#395000
b1 1
b1111 0
1#
1!
#400000
0!
#405000
0&
b10 1
0#
b1000000100010010 6
b10010010000101010011010100100100000000000000000 5
1!
#410000
0!
#415000
b11 1
1*
1!
#420000
0!
#425000
b1 1
b10000 0
1#
0*
b11010111101101011001100011001011111111001001000 $
b11010111101101011001100011001011111111001001000 2
b11010111101101011001100011001011111111001001000 8
b11010111101101011001100011001011111111001001000 7
1!
#430000
0!
#435000
1&
b100000010001001 6
b100100100001010100110101001001000000000000000000 5
b11 1
0#
1!
#440000
0!
#445000
b1 1
b10001 0
1#
1!
#450000
0!
#455000
0&
b10000001000100 6
b1001001000010101001101010010010000000000000000000 5
b10 1
0#
1!
#460000
0!
#465000
b11 1
1*
1!
#470000
0!
#475000
b1100100000000010100110110101011011111111001001000 $
b1100100000000010100110110101011011111111001001000 2
b1100100000000010100110110101011011111111001001000 8
b1100100000000010100110110101011011111111001001000 7
b1 1
b10010 0
1#
0*
1!
#480000
0!
#485000
b11 1
0#
b1000000100010 6
b10010010000101010011010100100100000000000000000000 5
1!
#490000
0!
#495000
b1 1
b10011 0
1#
1!
#500000
0!
#505000
1&
b11 1
0#
b100000010001 6
b100100100001010100110101001001000000000000000000000 5
1!
#510000
0!
#515000
b1 1
b10100 0
1#
1!
#520000
0!
#525000
0&
b10 1
0#
b10000001000 6
b1001001000010101001101010010010000000000000000000000 5
1!
#530000
0!
#535000
b11 1
1*
1!
#540000
0!
#545000
b1 1
b10101 0
1#
0*
b1010101100010101100010001000111011011111111001001000 $
b1010101100010101100010001000111011011111111001001000 2
b1010101100010101100010001000111011011111111001001000 8
b1010101100010101100010001000111011011111111001001000 7
1!
#550000
0!
#555000
b1000000100 6
b10010010000101010011010100100100000000000000000000000 5
b11 1
0#
1!
#560000
0!
#565000
b1 1
b10110 0
1#
1!
#570000
0!
#575000
b100000010 6
b100100100001010100110101001001000000000000000000000000 5
b11 1
0#
1!
#580000
0!
#585000
b1 1
b10111 0
1#
1!
#590000
0!
#595000
1&
b10000001 6
b1001001000010101001101010010010000000000000000000000000 5
b11 1
0#
1!
#600000
0!
#605000
b1 1
b11000 0
1#
1!
#610000
0!
#615000
0&
b1000000 6
b10010010000101010011010100100100000000000000000000000000 5
b10 1
0#
1!
#620000
0!
#625000
b11 1
1*
1!
#630000
0!
#635000
b10011100110001101000110110101100111011011111111001001000 $
b10011100110001101000110110101100111011011111111001001000 2
b10011100110001101000110110101100111011011111111001001000 8
b10011100110001101000110110101100111011011111111001001000 7
b1 1
b11001 0
1#
0*
1!
#640000
0!
#645000
b11 1
0#
b100000 6
b100100100001010100110101001001000000000000000000000000000 5
1!
#650000
0!
#655000
b1 1
b11010 0
1#
1!
#660000
0!
#665000
b11 1
0#
b10000 6
b1001001000010101001101010010010000000000000000000000000000 5
1!
#670000
0!
#675000
b1 1
b11011 0
1#
1!
#680000
0!
#685000
b11 1
0#
b1000 6
b10010010000101010011010100100100000000000000000000000000000 5
1!
#690000
0!
#695000
b1 1
b11100 0
1#
1!
#700000
0!
#705000
b11 1
0#
b100 6
b100100100001010100110101001001000000000000000000000000000000 5
1!
#710000
0!
#715000
b1 1
b11101 0
1#
1!
#720000
0!
#725000
b11 1
0#
b10 6
b1001001000010101001101010010010000000000000000000000000000000 5
1!
#730000
0!
#735000
b1 1
b11110 0
1#
1!
#740000
0!
#745000
1&
b11 1
0#
b1 6
b10010010000101010011010100100100000000000000000000000000000000 5
1!
#750000
0!
#755000
b1 1
b11111 0
1#
1!
#760000
0!
#765000
0&
b10 1
0#
b0 6
b100100100001010100110101001001000000000000000000000000000000000 5
1!
#770000
0!
#775000
b11 1
1*
1!
#780000
0!
#785000
1(
b0 1
b100000 0
1#
0*
b100100110100111011000010001111110101100111011011111111001001000 $
b100100110100111011000010001111110101100111011011111111001001000 2
b100100110100111011000010001111110101100111011011111111001001000 8
b100100110100111011000010001111110101100111011011111111001001000 7
1!
#790000
0!
#795000
b1001001000010101001101010010010000000000000000000000000000000000 5
b1 1
b0 0
1'
0(
0#
1"
b110001111100000101011001100011 )
b110001111100000101011001100011 3
b110001111100000101011001100011 :
b100100001001101011000001001 +
b100100001001101011000001001 4
b100100001001101011000001001 9
b110001111100000101011001100011 @
b100100001001101011000001001 ?
b1 A
1!
#800000
0!
#805000
1&
b11 1
0'
b110001111100000101011001100011 6
b100100001001101011000001001 5
b0 $
b0 2
b0 8
b0 7
b11100001101010110000011011000000101101011100101101111011 =
b110001111100000101011001100011 <
b100100001001101011000001001 ;
1!
#810000
0!
#815000
b1 1
b1 0
1#
0"
1!
#820000
0!
#825000
b10 1
0#
b11000111110000010101100110001 6
b1001000010011010110000010010 5
1!
#830000
0!
#835000
b11 1
1*
1!
#840000
0!
#845000
b1 1
b10 0
1#
0*
b1001000010011010110000010010 $
b1001000010011010110000010010 2
b1001000010011010110000010010 8
b1001000010011010110000010010 7
1!
#850000
0!
#855000
0&
b1100011111000001010110011000 6
b10010000100110101100000100100 5
b10 1
0#
1!
#860000
0!
#865000
b11 1
1*
1!
#870000
0!
#875000
b11011000111010000010000110110 $
b11011000111010000010000110110 2
b11011000111010000010000110110 8
b11011000111010000010000110110 7
b1 1
b11 0
1#
0*
1!
#880000
0!
#885000
b11 1
0#
b110001111100000101011001100 6
b100100001001101011000001001000 5
1!
#890000
0!
#895000
b1 1
b100 0
1#
1!
#900000
0!
#905000
b11 1
0#
b11000111110000010101100110 6
b1001000010011010110000010010000 5
1!
#910000
0!
#915000
b1 1
b101 0
1#
1!
#920000
0!
#925000
1&
b11 1
0#
b1100011111000001010110011 6
b10010000100110101100000100100000 5
1!
#930000
0!
#935000
b1 1
b110 0
1#
1!
#940000
0!
#945000
b10 1
0#
b110001111100000101011001 6
b100100001001101011000001001000000 5
1!
#950000
0!
#955000
b11 1
1*
1!
#960000
0!
#965000
b1 1
b111 0
1#
0*
b100111100010100101000011001110110 $
b100111100010100101000011001110110 2
b100111100010100101000011001110110 8
b100111100010100101000011001110110 7
1!
#970000
0!
#975000
0&
b11000111110000010101100 6
b1001000010011010110000010010000000 5
b10 1
0#
1!
#980000
0!
#985000
b11 1
1*
1!
#990000
0!
#995000
b1101111110101111011000101011110110 $
b1101111110101111011000101011110110 2
b1101111110101111011000101011110110 8
b1101111110101111011000101011110110 7
b1 1
b1000 0
1#
0*
1!
#1000000
0!
#1005000
b11 1
0#
b1100011111000001010110 6
b10010000100110101100000100100000000 5
1!
#1010000
0!
#1015000
b1 1
b1001 0
1#
1!
#1020000
0!
#1025000
1&
b11 1
0#
b110001111100000101011 6
b100100001001101011000001001000000000 5
1!
#1030000
0!
#1035000
b1 1
b1010 0
1#
1!
#1040000
0!
#1045000
b10 1
0#
b11000111110000010101 6
b1001000010011010110000010010000000000 5
1!
#1050000
0!
#1055000
b11 1
1*
1!
#1060000
0!
#1065000
b1 1
b1011 0
1#
0*
b1010110010010000101011010111011110110 $
b1010110010010000101011010111011110110 2
b1010110010010000101011010111011110110 8
b1010110010010000101011010111011110110 7
1!
#1070000
0!
#1075000
0&
b1100011111000001010 6
b10010000100110101100000100100000000000 5
b10 1
0#
1!
#1080000
0!
#1085000
b11 1
1*
1!
#1090000
0!
#1095000
b11100110111000110001011111011011110110 $
b11100110111000110001011111011011110110 2
b11100110111000110001011111011011110110 8
b11100110111000110001011111011011110110 7
b1 1
b1100 0
1#
0*
1!
#1100000
0!
#1105000
1&
b11 1
0#
b110001111100000101 6
b100100001001101011000001001000000000000 5
1!
#1110000
0!
#1115000
b1 1
b1101 0
1#
1!
#1120000
0!
#1125000
0&
b10 1
0#
b11000111110000010 6
b1001000010011010110000010010000000000000 5
1!
#1130000
0!
#1135000
b11 1
1*
1!
#1140000
0!
#1145000
b1 1
b1110 0
1#
0*
b1100101001010011100001110001011011110110 $
b1100101001010011100001110001011011110110 2
b1100101001010011100001110001011011110110 8
b1100101001010011100001110001011011110110 7
1!
#1150000
0!
#1155000
1&
b1100011111000001 6
b10010000100110101100000100100000000000000 5
b11 1
0#
1!
#1160000
0!
#1165000
b1 1
b1111 0
1#
1!
#1170000
0!
#1175000
0&
b110001111100000 6
b100100001001101011000001001000000000000000 5
b10 1
0#
1!
#1180000
0!
#1185000
b11 1
1*
1!
#1190000
0!
#1195000
b110000110010111110100010111001011011110110 $
b110000110010111110100010111001011011110110 2
b110000110010111110100010111001011011110110 8
b110000110010111110100010111001011011110110 7
b1 1
b10000 0
1#
0*
1!
#1200000
0!
#1205000
b11 1
0#
b11000111110000 6
b1001000010011010110000010010000000000000000 5
1!
#1210000
0!
#1215000
b1 1
b10001 0
1#
1!
#1220000
0!
#1225000
b11 1
0#
b1100011111000 6
b10010000100110101100000100100000000000000000 5
1!
#1230000
0!
#1235000
b1 1
b10010 0
1#
1!
#1240000
0!
#1245000
b11 1
0#
b110001111100 6
b100100001001101011000001001000000000000000000 5
1!
#1250000
0!
#1255000
b1 1
b10011 0
1#
1!
#1260000
0!
#1265000
b11 1
0#
b11000111110 6
b1001000010011010110000010010000000000000000000 5
1!
#1270000
0!
#1275000
b1 1
b10100 0
1#
1!
#1280000
0!
#1285000
1&
b11 1
0#
b1100011111 6
b10010000100110101100000100100000000000000000000 5
1!
#1290000
0!
#1295000
b1 1
b10101 0
1#
1!
#1300000
0!
#1305000
b10 1
0#
b110001111 6
b100100001001101011000001001000000000000000000000 5
1!
#1310000
0!
#1315000
b11 1
1*
1!
#1320000
0!
#1325000
b1 1
b10110 0
1#
0*
b100100111010011101111111101010111001011011110110 $
b100100111010011101111111101010111001011011110110 2
b100100111010011101111111101010111001011011110110 8
b100100111010011101111111101010111001011011110110 7
1!
#1330000
0!
#1335000
b11000111 6
b1001000010011010110000010010000000000000000000000 5
b10 1
0#
1!
#1340000
0!
#1345000
b11 1
1*
1!
#1350000
0!
#1355000
b1101101001101110100000001111010111001011011110110 $
b1101101001101110100000001111010111001011011110110 2
b1101101001101110100000001111010111001011011110110 8
b1101101001101110100000001111010111001011011110110 7
b1 1
b10111 0
1#
0*
1!
#1360000
0!
#1365000
b10 1
0#
b1100011 6
b10010000100110101100000100100000000000000000000000 5
1!
#1370000
0!
#1375000
b11 1
1*
1!
#1380000
0!
#1385000
b1 1
b11000 0
1#
0*
b11111101110100100000000110011010111001011011110110 $
b11111101110100100000000110011010111001011011110110 2
b11111101110100100000000110011010111001011011110110 8
b11111101110100100000000110011010111001011011110110 7
1!
#1390000
0!
#1395000
b110001 6
b100100001001101011000001001000000000000000000000000 5
b10 1
0#
1!
#1400000
0!
#1405000
b11 1
1*
1!
#1410000
0!
#1415000
b1000011111000001111000001111011010111001011011110110 $
b1000011111000001111000001111011010111001011011110110 2
b1000011111000001111000001111011010111001011011110110 8
b1000011111000001111000001111011010111001011011110110 7
b1 1
b11001 0
1#
0*
1!
#1420000
0!
#1425000
0&
b10 1
0#
b11000 6
b1001000010011010110000010010000000000000000000000000 5
1!
#1430000
0!
#1435000
b11 1
1*
1!
#1440000
0!
#1445000
b1 1
b11010 0
1#
0*
b10001100001011100101000100001011010111001011011110110 $
b10001100001011100101000100001011010111001011011110110 2
b10001100001011100101000100001011010111001011011110110 8
b10001100001011100101000100001011010111001011011110110 7
1!
#1450000
0!
#1455000
b1100 6
b10010000100110101100000100100000000000000000000000000 5
b11 1
0#
1!
#1460000
0!
#1465000
b1 1
b11011 0
1#
1!
#1470000
0!
#1475000
b110 6
b100100001001101011000001001000000000000000000000000000 5
b11 1
0#
1!
#1480000
0!
#1485000
b1 1
b11100 0
1#
1!
#1490000
0!
#1495000
1&
b11 6
b1001000010011010110000010010000000000000000000000000000 5
b11 1
0#
1!
#1500000
0!
#1505000
b1 1
b11101 0
1#
1!
#1510000
0!
#1515000
b1 6
b10010000100110101100000100100000000000000000000000000000 5
b10 1
0#
1!
#1520000
0!
#1525000
b11 1
1*
1!
#1530000
0!
#1535000
b10100010001000001000101101000001011010111001011011110110 $
b10100010001000001000101101000001011010111001011011110110 2
b10100010001000001000101101000001011010111001011011110110 8
b10100010001000001000101101000001011010111001011011110110 7
b1 1
b11110 0
1#
0*
1!
#1540000
0!
#1545000
0&
b10 1
0#
b0 6
b100100001001101011000001001000000000000000000000000000000 5
1!
#1550000
0!
#1555000
b11 1
1*
1!
#1560000
0!
#1565000
b1 1
b11111 0
1#
0*
b111000011010101100000110110000001011010111001011011110110 $
b111000011010101100000110110000001011010111001011011110110 2
b111000011010101100000110110000001011010111001011011110110 8
b111000011010101100000110110000001011010111001011011110110 7
1!
#1570000
0!
#1575000
b1001000010011010110000010010000000000000000000000000000000 5
b11 1
0#
1!
#1580000
0!
#1585000
1(
b0 1
b100000 0
1#
1!
#1590000
0!
#1595000
b10010000100110101100000100100000000000000000000000000000000 5
b1 1
b0 0
1'
0(
0#
1"
b11000110110111111001100110001101 )
b11000110110111111001100110001101 3
b11000110110111111001100110001101 :
b10000110101110010111101100001101 +
b10000110101110010111101100001101 4
b10000110101110010111101100001101 9
b11000110110111111001100110001101 @
b10000110101110010111101100001101 ?
b10 A
1!
#1600000
0!
#1605000
1&
b11 1
0'
b11000110110111111001100110001101 6
b10000110101110010111101100001101 5
b0 $
b0 2
b0 8
b0 7
b110100010101001001000011000110101001101000001101000101100101001 =
b11000110110111111001100110001101 <
b10000110101110010111101100001101 ;
1!
#1610000
0!
#1615000
b1 1
b1 0
1#
0"
1!
#1620000
0!
#1625000
0&
b10 1
0#
b1100011011011111100110011000110 6
b100001101011100101111011000011010 5
1!
#1630000
0!
#1635000
b11 1
1*
1!
#1640000
0!
#1645000
b1 1
b10 0
1#
0*
b100001101011100101111011000011010 $
b100001101011100101111011000011010 2
b100001101011100101111011000011010 8
b100001101011100101111011000011010 7
1!
#1650000
0!
#1655000
1&
b110001101101111110011001100011 6
b1000011010111001011110110000110100 5
b11 1
0#
1!
#1660000
0!
#1665000
b1 1
b11 0
1#
1!
#1670000
0!
#1675000
b11000110110111111001100110001 6
b10000110101110010111101100001101000 5
b10 1
0#
1!
#1680000
0!
#1685000
b11 1
1*
1!
#1690000
0!
#1695000
b10101000011001111101100111010000010 $
b10101000011001111101100111010000010 2
b10101000011001111101100111010000010 8
b10101000011001111101100111010000010 7
b1 1
b100 0
1#
0*
1!
#1700000
0!
#1705000
0&
b10 1
0#
b1100011011011111100110011000 6
b100001101011100101111011000011010000 5
1!
#1710000
0!
#1715000
b11 1
1*
1!
#1720000
0!
#1725000
b1 1
b101 0
1#
0*
b110110101110110101100111111101010010 $
b110110101110110101100111111101010010 2
b110110101110110101100111111101010010 8
b110110101110110101100111111101010010 7
1!
#1730000
0!
#1735000
b110001101101111110011001100 6
b1000011010111001011110110000110100000 5
b11 1
0#
1!
#1740000
0!
#1745000
b1 1
b110 0
1#
1!
#1750000
0!
#1755000
b11000110110111111001100110 6
b10000110101110010111101100001101000000 5
b11 1
0#
1!
#1760000
0!
#1765000
b1 1
b111 0
1#
1!
#1770000
0!
#1775000
1&
b1100011011011111100110011 6
b100001101011100101111011000011010000000 5
b11 1
0#
1!
#1780000
0!
#1785000
b1 1
b1000 0
1#
1!
#1790000
0!
#1795000
b110001101101111110011001 6
b1000011010111001011110110000110100000000 5
b10 1
0#
1!
#1800000
0!
#1805000
b11 1
1*
1!
#1810000
0!
#1815000
b1001010001101000010100011000110001010010 $
b1001010001101000010100011000110001010010 2
b1001010001101000010100011000110001010010 8
b1001010001101000010100011000110001010010 7
b1 1
b1001 0
1#
0*
1!
#1820000
0!
#1825000
0&
b10 1
0#
b11000110110111111001100 6
b10000110101110010111101100001101000000000 5
1!
#1830000
0!
#1835000
b11 1
1*
1!
#1840000
0!
#1845000
b1 1
b1010 0
1#
0*
b11010000111011011010001111010011001010010 $
b11010000111011011010001111010011001010010 2
b11010000111011011010001111010011001010010 8
b11010000111011011010001111010011001010010 7
1!
#1850000
0!
#1855000
b1100011011011111100110 6
b100001101011100101111011000011010000000000 5
b11 1
0#
1!
#1860000
0!
#1865000
b1 1
b1011 0
1#
1!
#1870000
0!
#1875000
1&
b110001101101111110011 6
b1000011010111001011110110000110100000000000 5
b11 1
0#
1!
#1880000
0!
#1885000
b1 1
b1100 0
1#
1!
#1890000
0!
#1895000
b11000110110111111001 6
b10000110101110010111101100001101000000000000 5
b10 1
0#
1!
#1900000
0!
#1905000
b11 1
1*
1!
#1910000
0!
#1915000
b10100000110101110010111110000111011001010010 $
b10100000110101110010111110000111011001010010 2
b10100000110101110010111110000111011001010010 8
b10100000110101110010111110000111011001010010 7
b1 1
b1101 0
1#
0*
1!
#1920000
0!
#1925000
0&
b10 1
0#
b1100011011011111100 6
b100001101011100101111011000011010000000000000 5
1!
#1930000
0!
#1935000
b11 1
1*
1!
#1940000
0!
#1945000
b1 1
b1110 0
1#
0*
b110101110010010100010010110100001011001010010 $
b110101110010010100010010110100001011001010010 2
b110101110010010100010010110100001011001010010 8
b110101110010010100010010110100001011001010010 7
1!
#1950000
0!
#1955000
b110001101101111110 6
b1000011010111001011110110000110100000000000000 5
b11 1
0#
1!
#1960000
0!
#1965000
b1 1
b1111 0
1#
1!
#1970000
0!
#1975000
1&
b11000110110111111 6
b10000110101110010111101100001101000000000000000 5
b11 1
0#
1!
#1980000
0!
#1985000
b1 1
b10000 0
1#
1!
#1990000
0!
#1995000
b1100011011011111 6
b100001101011100101111011000011010000000000000000 5
b10 1
0#
1!
#2000000
0!
#2005000
b11 1
1*
1!
#2010000
0!
#2015000
b101000011001111000011101011001110001011001010010 $
b101000011001111000011101011001110001011001010010 2
b101000011001111000011101011001110001011001010010 8
b101000011001111000011101011001110001011001010010 7
b1 1
b10001 0
1#
0*
1!
#2020000
0!
#2025000
b10 1
0#
b110001101101111 6
b1000011010111001011110110000110100000000000000000 5
1!
#2030000
0!
#2035000
b11 1
1*
1!
#2040000
0!
#2045000
b1 1
b10010 0
1#
0*
b1101011110001000100010011100000010001011001010010 $
b1101011110001000100010011100000010001011001010010 2
b1101011110001000100010011100000010001011001010010 8
b1101011110001000100010011100000010001011001010010 7
1!
#2050000
0!
#2055000
b11000110110111 6
b10000110101110010111101100001101000000000000000000 5
b10 1
0#
1!
#2060000
0!
#2065000
b11 1
1*
1!
#2070000
0!
#2075000
b11110010011111011011111111101101010001011001010010 $
b11110010011111011011111111101101010001011001010010 2
b11110010011111011011111111101101010001011001010010 8
b11110010011111011011111111101101010001011001010010 7
b1 1
b10011 0
1#
0*
1!
#2080000
0!
#2085000
b10 1
0#
b1100011011011 6
b100001101011100101111011000011010000000000000000000 5
1!
#2090000
0!
#2095000
b11 1
1*
1!
#2100000
0!
#2105000
b1 1
b10100 0
1#
0*
b111111111111100001011011000000111010001011001010010 $
b111111111111100001011011000000111010001011001010010 2
b111111111111100001011011000000111010001011001010010 8
b111111111111100001011011000000111010001011001010010 7
1!
#2110000
0!
#2115000
b110001101101 6
b1000011010111001011110110000110100000000000000000000 5
b10 1
0#
1!
#2120000
0!
#2125000
b11 1
1*
1!
#2130000
0!
#2135000
b10000011010110101101010001000111011010001011001010010 $
b10000011010110101101010001000111011010001011001010010 2
b10000011010110101101010001000111011010001011001010010 8
b10000011010110101101010001000111011010001011001010010 7
b1 1
b10101 0
1#
0*
1!
#2140000
0!
#2145000
0&
b10 1
0#
b11000110110 6
b10000110101110010111101100001101000000000000000000000 5
1!
#2150000
0!
#2155000
b11 1
1*
1!
#2160000
0!
#2165000
b1 1
b10110 0
1#
0*
b100001010000101000100111101010100011010001011001010010 $
b100001010000101000100111101010100011010001011001010010 2
b100001010000101000100111101010100011010001011001010010 8
b100001010000101000100111101010100011010001011001010010 7
1!
#2170000
0!
#2175000
1&
b1100011011 6
b100001101011100101111011000011010000000000000000000000 5
b11 1
0#
1!
#2180000
0!
#2185000
b1 1
b10111 0
1#
1!
#2190000
0!
#2195000
b110001101 6
b1000011010111001011110110000110100000000000000000000000 5
b10 1
0#
1!
#2200000
0!
#2205000
b11 1
1*
1!
#2210000
0!
#2215000
b1100100100111110100011101110001000011010001011001010010 $
b1100100100111110100011101110001000011010001011001010010 2
b1100100100111110100011101110001000011010001011001010010 8
b1100100100111110100011101110001000011010001011001010010 7
b1 1
b11000 0
1#
0*
1!
#2220000
0!
#2225000
0&
b10 1
0#
b11000110 6
b10000110101110010111101100001101000000000000000000000000 5
1!
#2230000
0!
#2235000
b11 1
1*
1!
#2240000
0!
#2245000
b1 1
b11001 0
1#
0*
b11101011010110001100001001111110000011010001011001010010 $
b11101011010110001100001001111110000011010001011001010010 2
b11101011010110001100001001111110000011010001011001010010 8
b11101011010110001100001001111110000011010001011001010010 7
1!
#2250000
0!
#2255000
1&
b1100011 6
b100001101011100101111011000011010000000000000000000000000 5
b11 1
0#
1!
#2260000
0!
#2265000
b1 1
b11010 0
1#
1!
#2270000
0!
#2275000
b110001 6
b1000011010111001011110110000110100000000000000000000000000 5
b10 1
0#
1!
#2280000
0!
#2285000
b11 1
1*
1!
#2290000
0!
#2295000
b1100000110001111101010111010110010000011010001011001010010 $
b1100000110001111101010111010110010000011010001011001010010 2
b1100000110001111101010111010110010000011010001011001010010 8
b1100000110001111101010111010110010000011010001011001010010 7
b1 1
b11011 0
1#
0*
1!
#2300000
0!
#2305000
0&
b10 1
0#
b11000 6
b10000110101110010111101100001101000000000000000000000000000 5
1!
#2310000
0!
#2315000
b11 1
1*
1!
#2320000
0!
#2325000
b1 1
b11100 0
1#
0*
b11100111100000010101000011100011010000011010001011001010010 $
b11100111100000010101000011100011010000011010001011001010010 2
b11100111100000010101000011100011010000011010001011001010010 8
b11100111100000010101000011100011010000011010001011001010010 7
1!
#2330000
0!
#2335000
b1100 6
b100001101011100101111011000011010000000000000000000000000000 5
b11 1
0#
1!
#2340000
0!
#2345000
b1 1
b11101 0
1#
1!
#2350000
0!
#2355000
b110 6
b1000011010111001011110110000110100000000000000000000000000000 5
b11 1
0#
1!
#2360000
0!
#2365000
b1 1
b11110 0
1#
1!
#2370000
0!
#2375000
1&
b11 6
b10000110101110010111101100001101000000000000000000000000000000 5
b11 1
0#
1!
#2380000
0!
#2385000
b1 1
b11111 0
1#
1!
#2390000
0!
#2395000
b1 6
b100001101011100101111011000011010000000000000000000000000000000 5
b10 1
0#
1!
#2400000
0!
#2405000
b11 1
1*
1!
#2410000
0!
#2415000
b100101010011000110010000000110110011010000011010001011001010010 $
b100101010011000110010000000110110011010000011010001011001010010 2
b100101010011000110010000000110110011010000011010001011001010010 8
b100101010011000110010000000110110011010000011010001011001010010 7
1(
b0 1
b100000 0
1#
0*
1!
#2420000
0!
#2425000
0&
b1 1
b0 0
1'
0(
0#
b0 6
b1000011010111001011110110000110100000000000000000000000000000000 5
1"
b1001001101110101001000010010 )
b1001001101110101001000010010 3
b1001001101110101001000010010 :
b110010110000101000010001100101 +
b110010110000101000010001100101 4
b110010110000101000010001100101 9
b1001001101110101001000010010 @
b110010110000101000010001100101 ?
b11 A
1!
#2430000
0!
#2435000
b1001001101110101001000010010 6
b110010110000101000010001100101 5
b0 $
b0 2
b0 8
b0 7
b11 1
0'
b111010011110011101011011111011110110010001010100100011010 =
b1001001101110101001000010010 <
b110010110000101000010001100101 ;
1!
#2440000
0!
#2445000
b1 1
b1 0
1#
0"
1!
#2450000
0!
